<?xml version="1.0" encoding="utf-8"?>
<!-- Generator: Adobe Illustrator 21.0.0, SVG Export Plug-In . SVG Version: 6.00 Build 0)  -->
<svg version="1.1" id="Layer_1" xmlns="http://www.w3.org/2000/svg" xmlns:xlink="http://www.w3.org/1999/xlink" x="0px" y="0px"
	 viewBox="0 0 512 512" style="enable-background:new 0 0 512 512;" xml:space="preserve">
<style type="text/css">
	.st0{fill:#3E4246;}
</style>
<g>
	<g>
		<g>
			<path class="st0" d="M501.8,139.9H171.3c-5.6,0-10.2,4.6-10.2,10.2v19.2H63.9c-5.6,0-10.2,4.6-10.2,10.2
				c0,5.6,4.6,10.2,10.2,10.2h97.2v132.5H103c-5.6,0-10.2,4.6-10.2,10.2s4.6,10.2,10.2,10.2h58.1v19.2c0,5.6,4.6,10.2,10.2,10.2
				h330.5c5.6,0,10.2-4.6,10.2-10.2V150.1C512,144.5,507.4,139.9,501.8,139.9z M476.6,160.3l-140.1,115l-139.4-115H476.6z
				 M491.6,351.7H181.5V173.9l148.6,122.5c1.9,1.6,4.2,2.3,6.5,2.3c2.3,0,4.6-0.8,6.5-2.3l148.6-122V351.7z"/>
		</g>
	</g>
</g>
<g>
	<g>
		<g>
			<path class="st0" d="M119.7,244.8H10.2C4.6,244.8,0,249.3,0,255c0,5.6,4.6,10.2,10.2,10.2h109.5c5.6,0,10.2-4.6,10.2-10.2
				C129.9,249.3,125.3,244.8,119.7,244.8z"/>
		</g>
	</g>
</g>
<g>
	<g>
		<g>
			<path class="st0" d="M69.4,322.2h-5.5c-5.6,0-10.2,4.6-10.2,10.2s4.6,10.2,10.2,10.2h5.5c5.6,0,10.2-4.6,10.2-10.2
				S75,322.2,69.4,322.2z"/>
		</g>
	</g>
</g>
</svg>
