<?xml version="1.0" encoding="utf-8"?>
<!-- Generator: Adobe Illustrator 21.0.0, SVG Export Plug-In . SVG Version: 6.00 Build 0)  -->
<svg version="1.1" id="Capa_1" xmlns="http://www.w3.org/2000/svg" xmlns:xlink="http://www.w3.org/1999/xlink" x="0px" y="0px"
	 viewBox="0 0 215 176.1" style="enable-background:new 0 0 215 176.1;" xml:space="preserve">
<style type="text/css">
	.st0{clip-path:url(#SVGID_10_);}
	.st1{fill:#2B5860;}
	.st2{clip-path:url(#SVGID_12_);}
	.st3{fill:url(#path4931_1_);}
	.st4{clip-path:url(#SVGID_14_);}
	.st5{fill:#3D3D3D;}
	.st6{clip-path:url(#SVGID_16_);}
	.st7{clip-path:url(#SVGID_18_);}
	.st8{fill:#515252;}
	.st9{clip-path:url(#SVGID_20_);}
	.st10{clip-path:url(#SVGID_22_);}
	.st11{clip-path:url(#SVGID_24_);}
	.st12{clip-path:url(#SVGID_26_);}
	.st13{clip-path:url(#SVGID_28_);}
</style>
<g>
	<g id="g5029" transform="matrix(0.41144603,0,0,0.41144603,179.02789,270.89279)">
		<g>
			<defs>
				<rect id="SVGID_1_" x="-596.1" y="-818.8" width="627" height="443.3"/>
			</defs>
			<clipPath id="SVGID_2_">
				<use xlink:href="#SVGID_1_"  style="overflow:visible;"/>
			</clipPath>
		</g>
	</g>
	<g id="g5041" transform="matrix(0.41144603,0,0,0.41144603,179.02789,270.89279)">
		<g>
			<defs>
				<rect id="SVGID_3_" x="-596.1" y="-818.8" width="627" height="443.3"/>
			</defs>
			<clipPath id="SVGID_4_">
				<use xlink:href="#SVGID_3_"  style="overflow:visible;"/>
			</clipPath>
		</g>
	</g>
	<g id="g5053" transform="matrix(0.41144603,0,0,0.41144603,179.02789,270.89278)">
		<g>
			<defs>
				<rect id="SVGID_5_" x="-596.1" y="-818.8" width="627" height="443.3"/>
			</defs>
			<clipPath id="SVGID_6_">
				<use xlink:href="#SVGID_5_"  style="overflow:visible;"/>
			</clipPath>
		</g>
	</g>
	<g id="g5065" transform="matrix(0.41144603,0,0,0.41144603,179.02789,270.89279)">
		<g>
			<defs>
				<rect id="SVGID_7_" x="-596.1" y="-818.8" width="627" height="443.3"/>
			</defs>
			<clipPath id="SVGID_8_">
				<use xlink:href="#SVGID_7_"  style="overflow:visible;"/>
			</clipPath>
		</g>
	</g>
</g>
<g id="g4877" transform="matrix(204,0,0,84,245.05328,215.87614)">
	<defs>
		<filter id="Adobe_OpacityMaskFilter" filterUnits="userSpaceOnUse" x="-1" y="-1.6" width="0.7" height="0.7">
			<feColorMatrix  type="matrix" values="1 0 0 0 0  0 1 0 0 0  0 0 1 0 0  0 0 0 1 0"/>
		</filter>
	</defs>
	<mask maskUnits="userSpaceOnUse" x="-1" y="-1.6" width="0.7" height="0.7" id="mask4879_2_">
		
			<image style="overflow:visible;filter:url(#Adobe_OpacityMaskFilter);enable-background:new    ;" width="204" height="84" id="image4881_2_" xlink:href="98A23749.jpg"  transform="matrix(3.111441e-05 0 0 1.835115e-04 -1.0005 -2.5141)">
		</image>
	</mask>
	<g transform="matrix(3.264484e-03 0 0 7.928033e-03 -1.005 -1.6312)" style="mask:url(#mask4879_2_);enable-background:new    ;">
		
			<image style="overflow:visible;" width="204" height="84" id="image4883" xlink:href="98A2374B.png"  transform="matrix(3.264484e-03 0 0 7.928033e-03 -1.005 -1.6312)">
		</image>
	</g>
</g>
<g>
	<defs>
		<rect id="SVGID_9_" x="110.8" y="104.4" width="25" height="5.1"/>
	</defs>
	<clipPath id="SVGID_10_">
		<use xlink:href="#SVGID_9_"  style="overflow:visible;"/>
	</clipPath>
	<g id="g4887" class="st0">
		<g id="g4893" transform="translate(445.53909,103.85249)">
			<path id="path4895" class="st1" d="M-309.7,3.1c0,1.4-5.6,2.5-12.5,2.5c-6.9,0-12.5-1.1-12.5-2.5s5.6-2.5,12.5-2.5
				C-315.3,0.5-309.7,1.7-309.7,3.1"/>
		</g>
	</g>
</g>
<g>
	<defs>
		<rect id="SVGID_11_" x="69" y="104.4" width="25" height="5.1"/>
	</defs>
	<clipPath id="SVGID_12_">
		<use xlink:href="#SVGID_11_"  style="overflow:visible;"/>
	</clipPath>
	<g id="g4899" class="st2">
		<g id="g4905" transform="translate(382.7505,103.85249)">
			<path id="path4907" class="st1" d="M-288.7,3.1c0,1.4-5.6,2.5-12.5,2.5c-6.9,0-12.5-1.1-12.5-2.5s5.6-2.5,12.5-2.5
				C-294.3,0.5-288.7,1.7-288.7,3.1"/>
		</g>
	</g>
</g>
<g id="g4911">
	<g id="g4917">
		<g id="g4919">
			
				<radialGradient id="path4931_1_" cx="-473.3362" cy="316.5541" r="1.2949" gradientTransform="matrix(-0.3575 60.6142 82.5924 0.4871 -26200.1973 28563.5293)" gradientUnits="userSpaceOnUse">
				<stop  offset="0" style="stop-color:#F9FAFB"/>
				<stop  offset="0.7359" style="stop-color:#CFDADF"/>
				<stop  offset="0.7359" style="stop-color:#CFDADF"/>
				<stop  offset="1" style="stop-color:#F1F3F5"/>
			</radialGradient>
			<path id="path4931" class="st3" d="M103.7,10.6c-8.7,1.2-17.3,4.8-24.1,10.2l0,0C72,26.8,67.1,34.5,65.4,43l0,0
				c-0.5,2.6-0.7,5.4-0.9,8.4l0,0C63.6,63,62.4,70.1,52.9,70.1l0,0c-1.1,0-2.1,0.6-2.6,1.6l0,0c-0.5,1-0.4,2.2,0.3,3.1l0,0
				c12.8,17,34.9,19,50.4,19l0,0c0.4,0,0.8,0,1.2,0l0,0c0.3,0,0.6,0,0.9,0l0,0c0.4,0,0.9,0,1.4,0l0,0c0.5,0,1,0,1.6,0l0,0
				c7.2,0,14.8-0.3,21.7-2.9l0,0c12.1-4.5,22.3-14.6,25.9-25.8l0,0c4.1-12.6,2.2-25.4-5.4-35.9l0,0c-8.5-11.7-23.1-19-38.1-19l0,0
				C107.9,10.2,105.8,10.3,103.7,10.6"/>
		</g>
	</g>
</g>
<g>
	<defs>
		<rect id="SVGID_13_" x="-160.9" y="-398" width="811.9" height="574.1"/>
	</defs>
	<clipPath id="SVGID_14_">
		<use xlink:href="#SVGID_13_"  style="overflow:visible;"/>
	</clipPath>
	<g id="g4935" class="st4">
		<g id="g4941" transform="translate(406.7632,253.5488)">
			<path id="path4943" class="st5" d="M-296.7-246.3c-2.2,0-4.5,0.2-6.7,0.4c-9.2,1.2-18.3,5.1-25.5,10.8
				c-8.2,6.4-13.4,14.7-15.2,24c-0.5,2.7-0.8,5.8-1,8.7c-0.3,4.6-0.7,9.3-2.2,12.5c-1,2.1-2.5,3.5-6.5,3.5c-2.2,0-4.2,1.3-5.2,3.2
				c-1,2-0.8,4.4,0.6,6.1c13.6,18.1,36.6,20.2,52.7,20.2c0.4,0,0.8,0,1.2,0c0.3,0,0.6,0,0.9,0c0.4,0,0.9,0,1.4,0c0.5,0,1,0,1.6,0
				c7.5,0,15.4-0.4,22.7-3.1c6-2.2,11.8-5.9,16.6-10.5c5.2-5,9.1-10.9,11.1-17.1c2.3-6.9,2.9-13.9,1.7-20.8
				c-1.1-6.4-3.6-12.4-7.5-17.8c-4.4-6.1-10.5-11.2-17.5-14.8C-280.9-244.4-288.8-246.3-296.7-246.3 M-296.7-240.5
				c26.3,0,49.8,23.5,40.7,51.1c-3.7,11.1-13.8,20.1-24.2,24c-6.7,2.5-14.6,2.7-20.6,2.7c-1.1,0-2,0-3,0c-0.3,0-0.6,0-0.9,0
				c-0.4,0-0.8,0-1.2,0c-15.1,0-36-1.8-48-17.9c16.5,0,13.3-18.5,15.4-29.4c3.3-16.7,19.8-27.9,35.8-30.1
				C-300.7-240.3-298.7-240.5-296.7-240.5"/>
		</g>
	</g>
</g>
<g>
	<defs>
		<rect id="SVGID_15_" x="-160.9" y="-398" width="811.9" height="574.1"/>
	</defs>
	<clipPath id="SVGID_16_">
		<use xlink:href="#SVGID_15_"  style="overflow:visible;"/>
	</clipPath>
	<g id="g4947" class="st6">
		<g id="g4953" transform="translate(381.5952,121.6973)">
			<path id="path4955" class="st5" d="M-288.3-26.7c0.6,6.5-4.2,12.1-10.7,12.7c-6.5,0.6-12.1-4.2-12.7-10.7
				c-0.6-6.5,4.2-12.1,10.7-12.7C-294.6-37.9-288.9-33.1-288.3-26.7"/>
		</g>
	</g>
</g>
<g>
	<defs>
		<rect id="SVGID_17_" x="-160.9" y="-398" width="811.9" height="574.1"/>
	</defs>
	<clipPath id="SVGID_18_">
		<use xlink:href="#SVGID_17_"  style="overflow:visible;"/>
	</clipPath>
	<g id="g4959" class="st7">
		<g id="g4965" transform="translate(369.1758,120.37939)">
			<path id="path4967" class="st8" d="M-284.2-24.5c0,2.1-1.5,3.8-3.3,3.8c-1.8,0-3.3-1.7-3.3-3.8s1.5-3.8,3.3-3.8
				C-285.7-28.3-284.2-26.6-284.2-24.5"/>
		</g>
	</g>
</g>
<g>
	<defs>
		<rect id="SVGID_19_" x="-160.9" y="-398" width="811.9" height="574.1"/>
	</defs>
	<clipPath id="SVGID_20_">
		<use xlink:href="#SVGID_19_"  style="overflow:visible;"/>
	</clipPath>
	<g id="g4971" class="st9">
		<g id="g4977" transform="translate(442.02541,121.6973)">
			<path id="path4979" class="st5" d="M-308.5-26.7c0.6,6.5-4.2,12.1-10.7,12.7c-6.5,0.6-12.1-4.2-12.7-10.7
				c-0.6-6.5,4.2-12.1,10.7-12.7C-314.8-37.9-309.1-33.1-308.5-26.7"/>
		</g>
	</g>
</g>
<g>
	<defs>
		<rect id="SVGID_21_" x="-160.9" y="-398" width="811.9" height="574.1"/>
	</defs>
	<clipPath id="SVGID_22_">
		<use xlink:href="#SVGID_21_"  style="overflow:visible;"/>
	</clipPath>
	<g id="g4983" class="st10">
		<g id="g4989" transform="translate(429.60741,120.37939)">
			<path id="path4991" class="st8" d="M-304.4-24.5c0,2.1-1.5,3.8-3.3,3.8c-1.8,0-3.3-1.7-3.3-3.8s1.5-3.8,3.3-3.8
				C-305.8-28.3-304.4-26.6-304.4-24.5"/>
		</g>
	</g>
</g>
<g>
	<defs>
		<rect id="SVGID_23_" x="-160.9" y="-398" width="811.9" height="574.1"/>
	</defs>
	<clipPath id="SVGID_24_">
		<use xlink:href="#SVGID_23_"  style="overflow:visible;"/>
	</clipPath>
	<g id="g4995" class="st11">
		<g id="g5001" transform="translate(391.9561,201.02831)">
			<path id="path5003" class="st5" d="M-291.8-158.8c0,3.1-2.5,5.6-5.6,5.6c-3.1,0-5.6-2.5-5.6-5.6c0-3.1,2.5-5.6,5.6-5.6
				C-294.3-164.4-291.8-161.9-291.8-158.8"/>
		</g>
	</g>
</g>
<g>
	<defs>
		<rect id="SVGID_25_" x="-160.9" y="-398" width="811.9" height="574.1"/>
	</defs>
	<clipPath id="SVGID_26_">
		<use xlink:href="#SVGID_25_"  style="overflow:visible;"/>
	</clipPath>
	<g id="g5007" class="st12">
		<g id="g5013" transform="translate(432.22659,202.3452)">
			<path id="path5015" class="st5" d="M-305.3-161c0,3.1-2.5,5.6-5.6,5.6c-3.1,0-5.6-2.5-5.6-5.6c0-3.1,2.5-5.6,5.6-5.6
				C-307.8-166.6-305.3-164.1-305.3-161"/>
		</g>
	</g>
</g>
<g>
	<defs>
		<rect id="SVGID_27_" x="-160.9" y="-398" width="811.9" height="574.1"/>
	</defs>
	<clipPath id="SVGID_28_">
		<use xlink:href="#SVGID_27_"  style="overflow:visible;"/>
	</clipPath>
	<g id="g5019" class="st13">
		<g id="g5025" transform="translate(403.78371,155.8149)">
			<path id="path5027" class="st5" d="M-295.8-83.5c-4.8,0-9.4-1.6-13.1-4.4c-3.8-2.9-6.2-6.9-6.7-11c-0.2-1.6,1-3.1,2.6-3.2
				c1.6-0.2,3.1,1,3.2,2.6c0.7,6.2,8.2,10.4,14.4,10.2c8-0.2,13.3-5,14.3-9.6c0.4-1.6,1.9-2.5,3.5-2.2c1.6,0.4,2.5,1.9,2.2,3.5
				c-0.9,3.8-3.3,7.2-6.8,9.8c-3.7,2.7-8.2,4.2-13.1,4.3C-295.4-83.5-295.6-83.5-295.8-83.5"/>
		</g>
	</g>
</g>
<g id="g5043">
	<g id="g5049" transform="translate(694.00391,172.061)">
		<path id="path5051" class="st5" d="M-587.8-13.7v-2.5c-2.4-1.1-5.5-1.8-8.8-1.8c-5.9,0-9.5,2.4-9.5,6.7v0.2c0,3.7,3.1,5.9,7.5,5.9
			C-592.2-5.1-587.8-8.7-587.8-13.7 M-619.6-10.5v-0.2c0-10.6,8.1-15.5,19.6-15.5c4.9,0,8.5,0.8,11.9,2V-25c0-5.7-3.5-8.9-10.5-8.9
			c-3.8,0-6.9,0.5-9.5,1.4c-0.8,0.3-1.4,0.4-2,0.4c-3.2,0-5.7-2.5-5.7-5.6c0-2.5,1.5-4.5,3.7-5.4c4.4-1.6,9.1-2.5,15.5-2.5
			c7.5,0,13,2,16.4,5.5c3.6,3.6,5.3,9,5.3,15.5v22.2c0,3.7-3,6.6-6.7,6.6c-4,0-6.6-2.8-6.6-5.7v-0.1c-3.4,3.7-8,6.2-14.7,6.2
			C-612,4.4-619.6-0.9-619.6-10.5"/>
	</g>
</g>
<g id="g5031">
	<g id="g5037" transform="translate(519.59959,148.91409)">
		<path id="path5039" class="st5" d="M-503.1,21.4L-515-13c-0.3-0.8-0.6-2.2-0.6-3.4c0-3.2,2.5-6.3,6.6-6.3c3.5,0,5.7,2.2,6.7,5.4
			l7.5,24.7l7.6-24.6c1-3.3,3.5-5.5,7.1-5.5h0.8c3.5,0,6.1,2.3,7.1,5.5l7.7,24.7l7.6-24.9c0.9-2.9,3-5.3,6.6-5.3
			c3.8,0,6.5,2.9,6.5,6.4c0,0.9-0.3,2.2-0.5,2.8l-12.3,34.8c-1.5,4.3-4.3,6.2-7.6,6.2h-0.5c-3.4,0-6.2-1.9-7.5-5.9l-7.7-24.5
			l-7.8,24.5c-1.3,4-4.1,5.9-7.5,5.9h-0.5C-498.9,27.5-501.7,25.6-503.1,21.4"/>
	</g>
</g>
<g id="g5055">
	<g id="g5061" transform="translate(723.6895,149.44341)">
		<path id="path5063" class="st5" d="M-602.3,20.6v-0.3c0-2.6,0.9-4.4,3.1-6.7l22.6-25h-19.3c-3.1,0-5.6-2.5-5.6-5.5
			c0-3.1,2.5-5.6,5.6-5.6h30.3c3.9,0,6.7,2.3,6.7,5.5v0.3c0,2.6-0.9,4.4-3.1,6.7l-22.7,25h20.2c3.1,0,5.6,2.5,5.6,5.6
			c0,3.1-2.5,5.5-5.6,5.5h-31.1C-599.4,26.1-602.3,23.8-602.3,20.6"/>
	</g>
</g>
<g id="g5067">
	<g id="g5073" transform="translate(872.8203,193.4409)">
		<path id="path5075" class="st5" d="M-674.7-46.1c-0.8-6.2-4.5-10.4-10.3-10.4c-5.7,0-9.5,4.1-10.5,10.4H-674.7z M-683.6-16.8
			c-14.6,0-25.4-10.3-25.4-25.2v-0.2c0-13.9,9.9-25.4,24.1-25.4c16.3,0,23.4,13.4,23.4,23.4c0,4-2.8,6.6-6.5,6.6h-27.4
			c1.4,6.3,5.7,9.5,11.9,9.5c3.8,0,7-1.2,9.8-3.3c1-0.7,1.9-1.1,3.4-1.1c3.1,0,5.4,2.4,5.4,5.5c0,1.8-0.8,3.2-1.8,4.1
			C-671-19.1-676.5-16.8-683.6-16.8"/>
	</g>
</g>
</svg>
